CaseStudy.utf8
…
beer_breweries$Style <- as.character(beer_breweries$Style)
beer_breweries$is_ale <- str_detect(beer_breweries$Style, "\\bAle\\b")
summary(beer_breweries$is_ale)

##    Mode   FALSE    TRUE 
## logical    1434     976

beer_breweries %>%
  filter(is_ale) %>%
  select(Style) %>%
  count(Style)

## # A tibble: 29 x 2
##    Style                        n
##    <chr>                    <int>
##  1 Abbey Single Ale             2
##  2 American Amber / Red Ale   133
##  3 American Black Ale          36
##  4 American Blonde Ale        108
##  5 American Brown Ale          70
##  6 American Dark Wheat Ale      7
##  7 American Pale Ale (APA)    245
##  8 American Pale Wheat Ale     97
##  9 American Strong Ale         14
## 10 American Wild Ale            6
## # … with 19 more rows
…
Beer_words_df = data.frame(Beer_words_distinct)

#tally the count of each word
Beer_words_df %>%
  count(X1) %>%
  arrange(desc(n))

## # A tibble: 2,423 x 2
##    X1         n
##    <fct>  <int>
##  1 Ale      591
##  2 IPA      318
##  3 Pale     225
##  4 s        127
##  5 Lager    101
##  6 Amber     73
##  7 Stout     72
##  8 Red       61
##  9 Blonde    60
## 10 Brown     58
## # … with 2,413 more rows
